%YAML 1.1
%TAG !u! tag:unity3d.com,2011:
--- !u!1045 &1
EditorBuildSettings:
  m_ObjectHideFlags: 0
  serializedVersion: 2
  m_Scenes:
  - enabled: 1
    path: Assets/Scenes/FrustumCulling.unity
    guid: 6153ca1ff859c1d40936626e8b2a8be8
  m_configObjects: {}
